<?xml version="1.0" encoding="utf-8"?>
<!-- Generator: Adobe Illustrator 19.0.0, SVG Export Plug-In . SVG Version: 6.00 Build 0)  -->
<svg version="1.1" xmlns="http://www.w3.org/2000/svg" xmlns:xlink="http://www.w3.org/1999/xlink" x="0px" y="0px"
	 viewBox="0 0 612 191.9" style="enable-background:new 0 0 612 191.9;" xml:space="preserve">
<style type="text/css">
	.st0{display:none;}
	.st1{display:inline;}
	.st2{fill:#444444;}
	.st3{fill:#676767;}
	.st4{fill:#A0A0A0;}
</style>
<g id="Layer_1" class="st0">
	<g class="st1">
		<g>
			<path class="st2" d="M353,167.3c0,1.5,0.8,2.2,2.3,2.2c1.3,0,2.8-0.5,4.3-1.6c1.6-1,3-2.4,4.3-4.1l0.8,0.4
				c-1.2,1.9-2.7,3.4-4.7,4.7c-1.9,1.2-3.7,1.8-5.4,1.8c-1.1,0-2-0.3-2.6-0.9c-0.6-0.6-1-1.4-1-2.4c0-1.5,0.6-2.8,1.7-3.8
				c1.2-1.1,2.5-1.6,4.2-1.6c0.8,0,1.4,0.2,1.9,0.5c0.5,0.3,0.7,0.8,0.7,1.3c0,0.9-0.7,1.7-2,2.4C356.2,166.9,354.7,167.3,353,167.3
				z M353,166.6c1.3-0.1,2.4-0.4,3.3-0.9c0.9-0.6,1.4-1.2,1.4-1.9c0-0.7-0.3-1-1-1c-0.8,0-1.6,0.4-2.3,1.1
				C353.6,164.6,353.2,165.5,353,166.6z"/>
			<path class="st2" d="M367.5,167.8c0.2,0.4,0.3,0.8,0.3,1.1c0,0.8-0.4,1.5-1.2,2c-0.8,0.6-1.7,0.9-2.7,0.9c-0.6,0-1.1-0.1-1.6-0.4
				c-0.4-0.3-0.6-0.6-0.6-1c0-0.4,0.3-0.8,0.9-1.2c0.6-0.4,1.6-0.9,3-1.5l-0.7-1c-0.9-1.2-1.3-2.1-1.3-2.8c0-1,0.7-1.8,2-2.4
				c0.8,0.3,1.2,0.6,1.2,1c0,0.6-0.5,1.1-1.6,1.7l1,1.6l0.8,1.2c1.2-0.6,2-1.1,2.6-1.5c0.6-0.4,1.3-1.1,2.2-1.9l0.7,0.4
				C371.3,165.6,369.6,166.8,367.5,167.8z M366,168.5c-1.8,0.8-2.7,1.4-2.7,1.9c0,0.4,0.4,0.6,1.1,0.6c0.5,0,1-0.2,1.3-0.5
				c0.3-0.3,0.5-0.7,0.5-1.2C366.2,169.1,366.1,168.8,366,168.5z"/>
			<path class="st2" d="M378.2,170l-0.7,2.8c-0.2,0.6-0.2,1.2-0.2,1.7c0,0.3,0.1,0.6,0.2,0.8c-0.6,0.2-1.1,0.3-1.4,0.3
				c-0.5,0-0.8-0.2-0.8-0.7c0-0.4,0.1-1,0.3-1.8l2.7-11.3c-0.5,0.1-1,0.1-1.3,0.1c-0.5,0-0.9-0.1-1.2-0.3c-0.3-0.2-0.5-0.6-0.6-1.2
				c0.4,0.2,1.1,0.4,2,0.4c1.1,0,2.2-0.2,3.3-0.5l-0.7,3c1-0.8,2.1-1.3,3.2-1.3c1,0,1.8,0.3,2.4,0.9c0.6,0.6,1,1.4,1,2.3
				c0,1.4-0.6,2.7-1.8,3.7c-1.2,1-2.6,1.6-4.2,1.6C379.5,170.5,378.8,170.3,378.2,170z M378.5,168.8c0.6,0.6,1.4,0.9,2.3,0.9
				c1.1,0,2-0.4,2.7-1.1c0.8-0.8,1.1-1.7,1.1-2.8c0-0.8-0.2-1.4-0.6-1.9c-0.4-0.5-1-0.7-1.7-0.7c-0.9,0-1.8,0.4-2.8,1.2L378.5,168.8
				z"/>
			<path class="st2" d="M395.7,165.8c-0.8,1.4-1.7,2.5-2.9,3.5c-1.1,1-2.1,1.4-3,1.4c-0.6,0-1.2-0.2-1.6-0.7
				c-0.4-0.5-0.6-1.1-0.6-1.9c0-1.6,0.6-3,1.7-4.2c1.2-1.2,2.5-1.8,4-1.8c0.9,0,1.9,0.2,3,0.7c0.2-0.5,0.8-0.7,1.9-0.7
				c0.1,0,0.2,0,0.4,0c-0.3,0.4-0.6,1.1-0.8,1.8l-0.2,0.7c-0.2,0.7-0.3,1.6-0.3,2.6c0,1.1,0.3,1.7,0.9,1.7c0.7,0,1.6-0.5,2.7-1.4
				c1.1-0.9,2.3-2.1,3.4-3.5l0.7,0.4c-1.1,1.7-2.4,3.1-3.9,4.2c-1.5,1.1-2.7,1.7-3.7,1.7c-1.3,0-2-0.9-2-2.8
				C395.7,167,395.7,166.5,395.7,165.8z M396.2,164c-1.3-0.7-2.3-1.1-3.2-1.1c-0.9,0-1.7,0.5-2.4,1.4c-0.7,0.9-1,2.1-1,3.3
				c0,1,0.4,1.6,1.2,1.6c0.9,0,2.5-1.6,5-4.8C395.8,164.4,396,164.2,396.2,164z"/>
			<path class="st2" d="M405,170.4c-0.4,0.2-0.8,0.2-1,0.2c-0.6,0-0.9-0.2-0.9-0.7c0-0.2,0.1-0.8,0.3-1.8l0.5-1.9
				c0.3-1.1,0.4-2,0.4-2.5c0-0.3-0.1-0.5-0.3-0.7c0.6-0.2,1.2-0.3,1.6-0.3c0.4,0,0.6,0.2,0.6,0.7c0,0.3-0.2,1-0.5,2.2l-0.5,2.2
				c1.2-1.9,2.3-3.3,3.5-4.4c1.2-1,2.2-1.6,3.2-1.6c0.3,0,0.6,0.1,0.9,0.2c0.2,0.2,0.4,0.4,0.4,0.6c0,0.4-0.5,0.8-1.4,1.4
				c-0.2-0.4-0.6-0.6-1-0.6c-0.8,0-1.8,0.7-3,2.1c-0.7,0.9-1.4,1.8-1.9,2.7c-0.5,0.9-0.8,1.6-0.8,2L405,170.4z"/>
			<path class="st2" d="M419.8,167.5c0.2,0.2,0.2,0.5,0.2,0.7c0,0.5-0.5,1.1-1.5,1.7c-1,0.6-1.9,0.9-2.8,0.9c-0.7,0-1.3-0.3-1.8-0.8
				c-0.5-0.6-0.7-1.3-0.7-2.1c0-1,0.3-2.3,0.9-4.1l0.4-1.3h-1.5c-0.6,0-1.2,0.1-1.5,0.2c0.4-0.5,0.6-0.9,0.9-1
				c0.2-0.1,0.6-0.2,1.2-0.2h1.4l0.2-0.5c0.3-0.8,0.6-1.3,1-1.6c0.4-0.3,1-0.4,1.8-0.4c0.1,0,0.2,0,0.4,0c-0.5,0.5-1,1.4-1.5,2.6
				h4.8c0.8,0,1.5-0.1,1.9-0.3c-0.2,0.5-0.4,0.9-0.6,1c-0.3,0.2-0.7,0.2-1.4,0.2h-5.1c-0.1,0.2-0.1,0.3-0.1,0.4
				c-0.7,2.1-1.1,3.7-1.1,4.8c0,1.2,0.5,1.8,1.5,1.8c0.5,0,1.1-0.2,1.7-0.6C419.1,168.3,419.5,167.9,419.8,167.5z"/>
			<path class="st2" d="M423,167.3c0,1.5,0.8,2.2,2.3,2.2c1.3,0,2.8-0.5,4.3-1.6c1.6-1,3-2.4,4.3-4.1l0.8,0.4
				c-1.2,1.9-2.8,3.4-4.7,4.7c-1.9,1.2-3.7,1.8-5.4,1.8c-1.1,0-2-0.3-2.6-0.9c-0.6-0.6-1-1.4-1-2.4c0-1.5,0.6-2.8,1.7-3.8
				c1.2-1.1,2.5-1.6,4.2-1.6c0.8,0,1.4,0.2,1.9,0.5c0.5,0.3,0.7,0.8,0.7,1.3c0,0.9-0.7,1.7-2,2.4C426.2,166.9,424.7,167.3,423,167.3
				z M423,166.6c1.3-0.1,2.4-0.4,3.3-0.9c0.9-0.6,1.4-1.2,1.4-1.9c0-0.7-0.3-1-1-1c-0.8,0-1.6,0.4-2.3,1.1
				C423.6,164.6,423.2,165.5,423,166.6z"/>
			<path class="st2" d="M446.1,166c-1,1.4-1.9,2.6-3,3.4c-1,0.8-2,1.3-2.8,1.3c-0.7,0-1.2-0.2-1.6-0.7c-0.4-0.5-0.6-1.1-0.6-1.9
				c0-1.6,0.6-3,1.7-4.3c1.1-1.2,2.5-1.8,4-1.8c0.9,0,1.9,0.2,3,0.7l1-4.1c-0.5,0.1-1,0.1-1.3,0.1c-0.5,0-0.9-0.1-1.2-0.3
				c-0.3-0.2-0.5-0.6-0.6-1.2c0.4,0.3,1.1,0.4,2,0.4c1.1,0,2.2-0.2,3.3-0.5l-2,8.4c-0.2,0.9-0.3,1.7-0.3,2.4c0,0.9,0.3,1.3,0.9,1.3
				c0.6,0,1.6-0.6,2.9-1.7c1.4-1.2,2.5-2.4,3.4-3.6l0.8,0.4c-1.1,1.7-2.4,3.2-4.1,4.5c-1.6,1.3-2.9,2-3.9,2c-1.2,0-1.8-0.8-1.8-2.5
				C445.9,167.5,446,166.8,446.1,166z M446.6,164c-1.3-0.7-2.3-1.1-3.2-1.1c-0.9,0-1.7,0.5-2.4,1.4c-0.7,0.9-1,2.1-1,3.3
				c0,1,0.4,1.6,1.2,1.6c0.9,0,2.5-1.6,5-4.8C446.3,164.3,446.4,164.2,446.6,164z"/>
			<path class="st2" d="M455,167.3c0,1.5,0.8,2.2,2.3,2.2c1.3,0,2.8-0.5,4.3-1.6c1.6-1,3-2.4,4.3-4.1l0.8,0.4
				c-1.2,1.9-2.7,3.4-4.7,4.7c-1.9,1.2-3.7,1.8-5.4,1.8c-1.1,0-2-0.3-2.6-0.9c-0.6-0.6-1-1.4-1-2.4c0-1.5,0.6-2.8,1.7-3.8
				c1.2-1.1,2.5-1.6,4.2-1.6c0.8,0,1.4,0.2,1.9,0.5c0.5,0.3,0.7,0.8,0.7,1.3c0,0.9-0.7,1.7-2,2.4C458.2,166.9,456.7,167.3,455,167.3
				z M455.1,166.6c1.3-0.1,2.4-0.4,3.3-0.9c0.9-0.6,1.4-1.2,1.4-1.9c0-0.7-0.3-1-1-1c-0.8,0-1.6,0.4-2.3,1.1
				C455.7,164.6,455.3,165.5,455.1,166.6z"/>
			<path class="st2" d="M473.5,167.8c2.2-3.9,4.1-5.8,5.8-5.8c0.7,0,1.1,0.4,1.1,1.3c0,0.4-0.2,1.2-0.5,2.6l-0.5,2.3
				c1.1-1.9,2.2-3.4,3.3-4.5c1.2-1.1,2.2-1.7,3-1.7c0.9,0,1.4,0.5,1.4,1.4c0,0.3-0.1,1.1-0.4,2.2l-0.3,1.2c-0.2,0.7-0.3,1.3-0.3,1.6
				c0,0.6,0.3,0.9,0.8,0.9c1.2,0,3-1.8,5.4-5.5l0.8,0.4c-2.6,4.3-5,6.5-6.9,6.5c-1.3,0-1.9-0.7-1.9-2.1c0-0.5,0.1-1.2,0.4-2.2
				l0.3-1.1c0.2-0.7,0.3-1.2,0.3-1.3c0-0.2-0.1-0.3-0.4-0.3c-0.7,0-1.8,1.1-3.5,3.3c-1.5,2-2.3,3.2-2.3,3.4c0,0,0,0.1,0,0.2
				c-0.1,0-0.2,0-0.4,0.1c-0.1,0-0.2,0-0.4,0c-0.6,0-0.9-0.2-0.9-0.7c0-0.1,0.1-0.6,0.3-1.2c0.1-0.3,0.1-0.5,0.2-0.8l0.4-1.6
				c0.3-1.2,0.4-1.9,0.4-2.1c0-0.3-0.1-0.5-0.4-0.5c-0.7,0-1.6,1-2.9,3c-1.3,2-1.9,3.1-1.9,3.5c0,0.1,0,0.2,0.1,0.3
				c-0.3,0.1-0.6,0.2-0.9,0.2c-0.6,0-1-0.3-1-0.9c0-0.1,0.1-0.8,0.3-2.2l0.2-1.6c0.1-0.6,0.1-1.1,0.1-1.6c0-0.6-0.2-1.1-0.4-1.4
				c0.7-0.2,1.2-0.3,1.5-0.3c0.5,0,0.8,0.3,0.8,0.8c0,0.2-0.1,0.9-0.2,2.1L473.5,167.8z"/>
			<path class="st2" d="M501.4,164.2c-1.4,2-2.8,3.6-4.2,4.8c-1.4,1.1-2.7,1.7-3.8,1.7c-0.7,0-1.2-0.2-1.7-0.6
				c-0.4-0.4-0.6-0.9-0.6-1.5c0-0.2,0.1-0.6,0.2-1.1l0.2-0.8c0.3-1.2,0.4-2.1,0.4-2.6c0-0.3-0.1-0.5-0.3-0.7
				c0.8-0.2,1.3-0.2,1.5-0.2c0.5,0,0.7,0.3,0.7,0.8c0,0.4-0.1,1-0.3,1.7l-0.4,1.5c-0.2,0.7-0.3,1.2-0.3,1.4c0,0.6,0.3,1,1,1
				c0.8,0,1.8-0.5,3-1.6c1.3-1.1,2.5-2.4,3.7-4.1L501.4,164.2z M493.3,160.3l0.1,0c0.4,0,1-0.2,1.8-0.5c0.8-0.3,1.4-0.7,1.8-1
				c-0.3,0.7-0.7,1.3-1.4,1.8c-1,0.7-1.7,1.1-2.1,1.1c-0.2,0-0.4-0.1-0.4-0.4C493.1,160.9,493.2,160.6,493.3,160.3z"/>
			<path class="st2" d="M507.8,170.7c0.1-0.4,0.2-0.8,0.2-1.2c0-1.3-0.3-2.7-1-4.2c-0.6-1.5-1.4-2.7-2.2-3.5c0.5-0.2,1-0.3,1.4-0.3
				c0.7,0,1.3,0.7,2,2.2c0.7,1.5,1.2,3.3,1.5,5.4c1.1-1.1,1.9-2.3,2.6-3.5c0.7-1.2,1.1-2.3,1.2-3.1c0.9,0.3,1.4,0.7,1.4,1
				c0,0.3-0.4,1.1-1.3,2.4c-0.9,1.2-1.8,2.4-2.9,3.5c-0.5,0.5-0.9,0.9-1.3,1C509.2,170.6,508.6,170.7,507.8,170.7z"/>
			<path class="st2" d="M526.7,164.2c-1.4,2-2.8,3.6-4.2,4.8c-1.4,1.1-2.7,1.7-3.8,1.7c-0.7,0-1.2-0.2-1.7-0.6
				c-0.4-0.4-0.6-0.9-0.6-1.5c0-0.2,0.1-0.6,0.2-1.1l0.2-0.8c0.3-1.2,0.4-2.1,0.4-2.6c0-0.3-0.1-0.5-0.3-0.7
				c0.8-0.2,1.3-0.2,1.5-0.2c0.5,0,0.7,0.3,0.7,0.8c0,0.4-0.1,1-0.3,1.7l-0.4,1.5c-0.2,0.7-0.3,1.2-0.3,1.4c0,0.6,0.3,1,1,1
				c0.8,0,1.8-0.5,3-1.6c1.3-1.1,2.5-2.4,3.7-4.1L526.7,164.2z M518.5,160.3l0.1,0c0.4,0,1-0.2,1.8-0.5c0.8-0.3,1.4-0.7,1.8-1
				c-0.3,0.7-0.7,1.3-1.4,1.8c-1,0.7-1.7,1.1-2.1,1.1c-0.2,0-0.4-0.1-0.4-0.4C518.3,160.9,518.4,160.6,518.5,160.3z"/>
			<path class="st2" d="M531.8,166c-1,1.4-1.9,2.6-3,3.4c-1,0.8-2,1.3-2.8,1.3c-0.7,0-1.2-0.2-1.6-0.7c-0.4-0.5-0.6-1.1-0.6-1.9
				c0-1.6,0.6-3,1.7-4.3c1.1-1.2,2.5-1.8,4-1.8c0.9,0,1.9,0.2,3,0.7l1-4.1c-0.5,0.1-1,0.1-1.3,0.1c-0.5,0-0.9-0.1-1.2-0.3
				c-0.2-0.2-0.5-0.6-0.6-1.2c0.4,0.3,1.1,0.4,2,0.4c1.1,0,2.2-0.2,3.3-0.5l-2,8.4c-0.2,0.9-0.3,1.7-0.3,2.4c0,0.9,0.3,1.3,0.9,1.3
				c0.6,0,1.6-0.6,2.9-1.7c1.4-1.2,2.5-2.4,3.4-3.6l0.8,0.4c-1.1,1.7-2.4,3.2-4.1,4.5c-1.6,1.3-2.9,2-3.9,2c-1.2,0-1.8-0.8-1.8-2.5
				C531.6,167.5,531.7,166.8,531.8,166z M532.3,164c-1.3-0.7-2.3-1.1-3.2-1.1c-0.9,0-1.7,0.5-2.4,1.4c-0.7,0.9-1,2.1-1,3.3
				c0,1,0.4,1.6,1.2,1.6c0.9,0,2.5-1.6,5-4.8C532,164.3,532.2,164.2,532.3,164z"/>
			<path class="st2" d="M546.7,165.8c-0.8,1.4-1.7,2.5-2.9,3.5c-1.1,1-2.1,1.4-3,1.4c-0.6,0-1.2-0.2-1.6-0.7
				c-0.4-0.5-0.6-1.1-0.6-1.9c0-1.6,0.6-3,1.7-4.2c1.2-1.2,2.5-1.8,4-1.8c0.9,0,1.9,0.2,3,0.7c0.2-0.5,0.8-0.7,1.9-0.7
				c0.1,0,0.2,0,0.4,0c-0.3,0.4-0.6,1.1-0.8,1.8l-0.2,0.7c-0.2,0.7-0.3,1.6-0.3,2.6c0,1.1,0.3,1.7,0.9,1.7c0.7,0,1.6-0.5,2.7-1.4
				c1.1-0.9,2.3-2.1,3.4-3.5l0.7,0.4c-1.1,1.7-2.4,3.1-3.9,4.2c-1.5,1.1-2.7,1.7-3.7,1.7c-1.3,0-2-0.9-2-2.8
				C546.7,167,546.7,166.5,546.7,165.8z M547.2,164c-1.3-0.7-2.3-1.1-3.2-1.1c-0.9,0-1.7,0.5-2.4,1.4c-0.7,0.9-1,2.1-1,3.3
				c0,1,0.4,1.6,1.2,1.6c0.9,0,2.5-1.6,5-4.8C546.8,164.4,546.9,164.2,547.2,164z"/>
		</g>
		<path class="st2" d="M561.7,162.6c-1.7,0-3.1-1.4-3.1-3.1c0-1.7,1.4-3.1,3.1-3.1s3.1,1.4,3.1,3.1
			C564.8,161.2,563.4,162.6,561.7,162.6L561.7,162.6z M561.7,156.9c-1.4,0-2.6,1.1-2.6,2.6c0,1.4,1.1,2.6,2.6,2.6
			c1.4,0,2.6-1.2,2.6-2.6C564.3,158,563.1,156.9,561.7,156.9L561.7,156.9z M560.3,157.9h1.5c0.8,0,1.1,0.5,1.1,0.9
			c0,0.5-0.4,0.9-0.9,1v0c0.3,0.1,0.5,0.4,0.8,0.8l0.4,0.6h-0.6l-0.3-0.5c-0.4-0.7-0.6-0.9-1-0.9h-0.3v1.4h-0.5V157.9L560.3,157.9z
			 M561.7,159.3c0.4,0,0.7-0.2,0.7-0.5c0-0.3-0.2-0.5-0.6-0.5h-0.9v1H561.7L561.7,159.3z"/>
	</g>
	<g class="st1">
		<path class="st2" d="M299.7,79.9c0-4.7,3.6-8.5,8.3-8.5h12.4V57.4h-14.7c-11.1,0-20,9-20,20.2v68.2h14L299.7,79.9z"/>
		<rect x="82.2" y="57.1" class="st2" width="14" height="88.3"/>
		<path class="st2" d="M318.4,175.3h14.1v-42.4c8.4,8.2,19.9,13.2,32.6,13.2c16.8,0,31.5-8.9,39.7-22.2
			c8.2,13.3,22.9,22.2,39.7,22.2c16.8,0,31.5-8.9,39.7-22.2c8.2,13.3,22.9,22.2,39.7,22.2c25.8,0,46.6-20.9,46.6-46.7
			c0-25.8-20.9-46.7-46.6-46.7c-16.8,0-31.5,8.9-39.7,22.2c-8.2-13.3-22.9-22.2-39.7-22.2c-16.8,0-31.5,8.9-39.7,22.2
			c-8.2-13.3-22.9-22.2-39.7-22.2c-25.8,0-46.7,20.9-46.7,46.7V175.3z M523.9,66.8c18,0,32.7,14.7,32.7,32.7
			c0,18-14.7,32.7-32.7,32.7c-18,0-32.7-14.7-32.7-32.7C491.2,81.5,505.9,66.8,523.9,66.8z M444.5,66.8c18,0,32.7,14.7,32.7,32.7
			c0,18-14.7,32.7-32.7,32.7c-18,0-32.7-14.7-32.7-32.7C411.8,81.5,426.5,66.8,444.5,66.8z M365.1,66.8c18,0,32.7,14.7,32.7,32.7
			c0,18-14.7,32.7-32.7,32.7c-18,0-32.7-14.7-32.7-32.7C332.4,81.5,347,66.8,365.1,66.8z"/>
		<path class="st2" d="M232.2,145.7c21.5,0,39.8-14.4,44.8-35.2h-13.5c-4.7,13.3-17.2,22.3-31.3,22.3c-17.2,0-31.4-12.9-33.1-30.5
			h79.3v-2.7c0-25.4-20.7-46.2-46.2-46.2c-25.5,0-46.2,20.7-46.2,46.2C186,125,206.7,145.7,232.2,145.7z M232.2,66.3
			c14.1,0,26.9,8.9,31.5,22.9h-63.1C205.2,75.3,218.1,66.3,232.2,66.3z"/>
		<rect x="82.2" y="25.8" class="st2" width="14" height="14.4"/>
		<polygon class="st2" points="155.2,145.4 190.2,57.1 174.2,57.1 146.1,128.2 117.9,57.1 101.9,57.1 136.9,145.4 		"/>
		<polygon class="st2" points="591.5,145.4 591.5,145.4 591.5,25.8 591.5,25.6 577.5,25.6 577.5,25.8 577.5,145.4 577.5,145.4 		"/>
		<path class="st2" d="M76.8,145.4v-13.7H42.4c-4.7,0-8.3-3.8-8.3-8.5l0-97.1l-14,0H20v112.7c0.5,4.1,5.2,6.6,10.4,6.6L76.8,145.4z"
			/>
	</g>
</g>
<g id="Capa_2">
	<g>
		<g>
			<g>
				<ellipse class="st3" cx="71.4" cy="92" rx="57.2" ry="52.3"/>
				<path class="st4" d="M118.3,107.7c-2.1,11.7-7.6,17-20.7,18.1l-53.5,0.1c-10.9,0-19.8-8.7-19.8-17.9l0.8-33.9
					c1.5-8.4,7.7-15.9,20.1-15.9h53.3c10.9,0,19.8,10.3,19.8,17.9V107.7z"/>
				<path class="st3" d="M96.5,100c-1.1,5.9-4.1,8.7-11.1,9.2l-28.9,0c-5.9,0-10.7-4.4-10.7-9.1l0.4-17.3c0.8-4.3,4.1-8.1,10.8-8.1
					h28.8c5.9,0,10.7,5.2,10.7,9.1V100z"/>
			</g>
			<g>
				<path class="st3" d="M131.1,125.7V58.3h58.1c14.4,0,24.4,1.4,29.9,4.3c5.5,2.9,8.2,8.1,8.2,15.6c0,6.8-1.4,11.5-4.1,14
					c-2.7,2.5-8.3,4.2-16.8,5.2v0.4c13.1,0.5,19.6,4.8,19.6,13.1v14.9h-22.4v-12.3c0-6.9-6-10.4-18-10.4h-32.2v22.7H131.1z
					 M153.4,92.2h32.1c7.7,0,12.7-0.8,15.2-2.3c2.5-1.6,3.8-4.7,3.8-9.4c0-4.8-1.1-7.9-3.2-9.3c-2.2-1.4-6.9-2.1-14.2-2.1h-33.7
					V92.2z"/>
				<path class="st3" d="M332.5,78h-21.8c-0.1-0.6-0.2-1.1-0.2-1.4c-0.5-3.8-2-6.2-4.4-7.1c-2.4-1-8.1-1.5-17.1-1.5
					c-10.6,0-17.5,0.6-20.8,1.7c-3.3,1.1-4.9,3.5-4.9,7.1c0,4.2,1.3,6.8,4,7.7c2.6,0.9,11.4,1.5,26.2,2c17.6,0.6,28.9,2,34.1,4.3
					c5.2,2.3,7.7,7.1,7.7,14.4c0,9-3,14.7-9.1,17.4c-6,2.6-19.4,3.9-40,3.9c-18.5,0-30.8-1.3-36.9-3.9c-6.1-2.6-9.1-7.8-9.1-15.6
					l-0.1-2.5H262l0.1,1.4c0,4.7,1.4,7.6,4.3,8.6c2.9,1.1,10.7,1.6,23.6,1.6c10,0,16.4-0.6,19.2-1.8c2.8-1.2,4.1-4,4.1-8.4
					c0-3.3-1.1-5.4-3.2-6.5c-2.1-1.1-6.6-1.7-13.6-2l-12.3-0.4c-18.7-0.6-30.6-2.1-35.7-4.4c-5.2-2.3-7.8-7.4-7.8-15.1
					c0-7.9,3.1-13.1,9.4-15.7c6.2-2.6,18.7-3.9,37.4-3.9c17.7,0,29.7,1.2,35.8,3.6c6.2,2.4,9.2,7.1,9.2,14.1V78z"/>
				<path class="st3" d="M422.2,112.8h-50.9l-7.3,12.9h-23.7l39.2-67.4h33.6l39.8,67.4h-23.2L422.2,112.8z M417,103.4l-20.4-35.1
					l-20,35.1H417z"/>
				<path class="st3" d="M572.5,58.3v67.4h-37.9l-33.7-37c-1.7-1.8-4.3-5.1-7.9-9.7l-3.8-4.8l-3.7-4.8h-0.9l0.3,4.4l0.3,4.4l0.2,8.8
					v38.7h-22.4V58.3H501l30.7,34.2c2.7,3,5.8,6.7,9.4,11l4.5,5.5l4.5,5.5h0.8l-0.3-4.3l-0.3-4.3l-0.2-8.7V58.3H572.5z"/>
			</g>
		</g>
		<g>
			<path class="st3" d="M587.6,124.1c-1.1,1.1-2.4,1.6-3.9,1.6c-1.6,0-2.9-0.5-4-1.6c-1.1-1.1-1.6-2.4-1.6-4c0-1.6,0.6-3,1.8-4.1
				c1.1-1,2.4-1.5,3.9-1.5c1.5,0,2.9,0.5,4,1.6c1.1,1.1,1.6,2.4,1.6,4C589.3,121.6,588.8,123,587.6,124.1z M580.4,116.8
				c-0.9,0.9-1.3,2-1.3,3.2c0,1.3,0.5,2.4,1.4,3.3c0.9,0.9,2,1.4,3.3,1.4c1.3,0,2.4-0.5,3.3-1.4c0.9-0.9,1.4-2,1.4-3.3
				c0-1.2-0.4-2.3-1.3-3.2c-0.9-0.9-2-1.4-3.3-1.4C582.4,115.4,581.3,115.8,580.4,116.8z M581.3,123.2v-6.2c0.4,0,1,0,1.7,0
				c0.8,0,1.2,0,1.3,0c0.5,0,0.9,0.1,1.2,0.3c0.6,0.3,0.8,0.8,0.8,1.5c0,0.5-0.1,0.9-0.4,1.1c-0.3,0.2-0.6,0.4-1.1,0.4
				c0.4,0.1,0.7,0.2,0.9,0.4c0.4,0.3,0.5,0.8,0.5,1.4v0.6c0,0.1,0,0.1,0,0.2c0,0.1,0,0.1,0,0.2l0.1,0.2h-1.6
				c-0.1-0.2-0.1-0.5-0.1-0.9c0-0.4-0.1-0.6-0.1-0.8c-0.1-0.2-0.2-0.4-0.5-0.5c-0.1-0.1-0.3-0.1-0.6-0.1l-0.4,0h-0.3v2.2H581.3z
				 M584.2,118.2c-0.2-0.1-0.5-0.1-0.9-0.1h-0.4v1.8h0.6c0.4,0,0.7-0.1,0.9-0.2c0.2-0.2,0.3-0.4,0.3-0.7
				C584.7,118.5,584.6,118.3,584.2,118.2z"/>
		</g>
	</g>
</g>
</svg>
