<?xml version="1.0" encoding="utf-8"?>
<!-- Generator: Adobe Illustrator 19.0.0, SVG Export Plug-In . SVG Version: 6.00 Build 0)  -->
<svg version="1.1" id="Layer_1" xmlns="http://www.w3.org/2000/svg" xmlns:xlink="http://www.w3.org/1999/xlink" x="0px" y="0px"
	 viewBox="0 0 70.9 70.9" style="enable-background:new 0 0 70.9 70.9;" xml:space="preserve">
<style type="text/css">
	.st0{display:none;fill:none;stroke:#888;stroke-width:2;stroke-miterlimit:10;}
	.st1{display:none;}
	.st2{display:inline;fill:#888;}
	.st3{display:inline;}
	.st4{fill:#888;}
	.st5{display:inline;fill:none;stroke:#888;stroke-miterlimit:10;}
	.st6{display:inline;fill:#FFFFFA;}
	.st7{fill:none;stroke:#888;stroke-miterlimit:10;}
	.st8{display:inline;fill:#FFFFFF;}
</style>
<path id="XMLID_3_" class="st0" d="M35.6,15.5L35.6,15.5c-0.5,0-1.1,0.2-1.5,0.5c-0.6,0.5-0.9,1.2-0.9,1.9l0,0.5
	c-0.4-0.3-0.9-0.5-1.4-0.5c-0.1,0-0.2,0-0.3,0c-1.1,0.1-2,1-2.1,2.2c-0.1,0.7,0.2,1.5,0.7,2l3,3.1c0,0,0,0,0,0.1l0,5.9
	c0,0.1-0.1,0.1-0.1,0.1l-4.9-2.9c0,0,0,0,0,0L27,24.1c-0.2-0.7-0.7-1.3-1.3-1.6c-0.3-0.1-0.6-0.2-1-0.2c-0.8,0-1.5,0.4-1.9,1
	c-0.4,0.5-0.5,1.1-0.5,1.7l-0.4-0.3c-0.4-0.2-0.8-0.3-1.2-0.3c-0.3,0-0.6,0.1-0.9,0.2c-1,0.4-1.7,1.5-1.5,2.6
	c0.1,0.7,0.5,1.4,1.2,1.7l0.4,0.3c-0.5,0.2-1,0.7-1.2,1.2c-0.5,1.1-0.1,2.3,0.8,2.9c0.4,0.3,0.9,0.5,1.4,0.5c0.2,0,0.4,0,0.6-0.1
	l4.2-1.1l0.1,0l4.8,2.9c0,0,0,0,0,0.1c0,0,0,0.1,0,0.1l-4.9,2.9l-0.4,1.1l0.3-1.1l-4.2-1.2c-0.2-0.1-0.4-0.1-0.6-0.1
	c-0.5,0-1,0.2-1.4,0.5c-0.9,0.7-1.2,1.9-0.8,2.9c0.2,0.6,0.7,1,1.2,1.2l-0.4,0.3c-0.6,0.4-1.1,1-1.2,1.7c-0.2,1.1,0.4,2.2,1.5,2.6
	c0.3,0.1,0.6,0.2,0.9,0.2c0.4,0,0.8-0.1,1.2-0.3l0.4-0.3c-0.1,0.6,0.1,1.2,0.4,1.7c0.4,0.6,1.2,1,1.9,1c0.3,0,0.6-0.1,1-0.2
	c0.7-0.3,1.2-0.9,1.3-1.6l1.1-4.3c0,0,0,0,0,0l5-3c0,0,0,0,0,0c0,0,0,0,0.1,0l0,5.9c0,0,0,0,0,0.1l-3.1,3.1c-0.5,0.5-0.8,1.3-0.7,2
	c0.1,1.1,1,2,2.1,2.2c0.1,0,0.2,0,0.3,0c0.5,0,1-0.2,1.4-0.5l0,0.5c0,0.7,0.3,1.4,0.9,1.9c0.4,0.3,0.9,0.5,1.5,0.5
	c0.5,0,1.1-0.2,1.5-0.5c0.6-0.5,0.9-1.2,0.9-1.9l0-0.5c0.4,0.3,0.9,0.5,1.4,0.5c0.1,0,0.2,0,0.3,0c1.1-0.1,2-1,2.1-2.2
	c0.1-0.7-0.2-1.5-0.7-2l-3-3.1c0,0,0,0,0-0.1l0-5.7c0-0.1,0.1-0.1,0.1-0.1l4.9,2.9c0,0,0,0,0,0l1.1,4.3c0.2,0.7,0.7,1.3,1.3,1.6
	c0.3,0.1,0.6,0.2,1,0.2c0.8,0,1.5-0.4,1.9-1c0.4-0.5,0.5-1.1,0.5-1.7l0.4,0.3c0.4,0.2,0.8,0.3,1.2,0.3c0.3,0,0.6-0.1,0.9-0.2
	c1-0.4,1.7-1.5,1.5-2.6c-0.1-0.7-0.5-1.4-1.2-1.7l-0.4-0.3c0.5-0.2,1-0.7,1.2-1.2c0.5-1.1,0.1-2.3-0.8-2.9c-0.4-0.3-0.9-0.5-1.4-0.5
	c-0.2,0-0.4,0-0.6,0.1l-4.2,1.1l-0.1,0l-5-3c0,0,0,0,0-0.1c0,0,0-0.1,0-0.1l4.9-2.9l0.4-1.1l-0.3,1.1l4.2,1.2
	c0.2,0.1,0.4,0.1,0.6,0.1c0.5,0,1-0.2,1.4-0.5c0.9-0.7,1.2-1.9,0.8-2.9c-0.2-0.6-0.7-1-1.2-1.2l0.4-0.3c0.6-0.4,1.1-1,1.2-1.7
	c0.2-1.1-0.4-2.2-1.5-2.6c-0.3-0.1-0.6-0.2-0.9-0.2c-0.4,0-0.8,0.1-1.2,0.3l-0.4,0.3c0.1-0.6-0.1-1.2-0.4-1.7c-0.4-0.6-1.2-1-1.9-1
	c-0.3,0-0.6,0.1-1,0.2c-0.7,0.3-1.2,0.9-1.3,1.6l-1.1,4.3c0,0,0,0,0,0L38,31.2c0,0,0,0,0,0c0,0,0,0-0.1,0l0-5.9c0,0,0,0,0-0.1
	l3.1-3.1c0.5-0.5,0.8-1.3,0.7-2c-0.1-1.1-1-2-2.1-2.2c-0.1,0-0.2,0-0.3,0c-0.5,0-1,0.2-1.4,0.5l0-0.5c0-0.7-0.3-1.4-0.9-1.9
	C36.6,15.7,36.1,15.5,35.6,15.5L35.6,15.5L35.6,15.5z"/>
<g id="XMLID_6_" class="st1">
	<path id="XMLID_77_" class="st2" d="M35.5,56.8c-1.2,0-2.3-0.7-2.7-1.8l-9.7-21.6c-0.8-1.8-1.2-3.6-1.2-5.6
		c0-7.5,6.1-13.6,13.6-13.6c7.5,0,13.6,6.1,13.6,13.6c0,1.9-0.4,3.8-1.2,5.6L38.3,55C37.8,56.1,36.7,56.8,35.5,56.8z M29,27.8
		c0,3.6,2.9,6.5,6.5,6.5c0.9,0,1.8-0.2,2.6-0.6c2.3-1,3.8-3.3,3.8-5.9c0-2.6-1.6-4.9-3.8-5.9c-0.8-0.4-1.7-0.6-2.6-0.6
		C31.9,21.4,29,24.3,29,27.8z"/>
</g>
<g id="XMLID_172_" class="st1">
	<rect id="XMLID_182_" x="15.3" y="17.8" class="st2" width="40.4" height="5.5"/>
	<path id="XMLID_181_" class="st2" d="M56.9,19c-0.3,0-0.6,0-0.6,0v3h0.6c0.3,0,0.6-0.4,0.6-0.8v-1.4C57.5,19.4,57.2,19,56.9,19z"/>
	<path id="XMLID_180_" class="st2" d="M15.3,52.6c0,0.4,0.4,0.7,0.8,0.7h38.7c0.5,0,0.8-0.3,0.8-0.7s0-0.7,0-0.7H15.3V52.6z"/>
	<rect id="XMLID_179_" x="16.9" y="24.1" class="st2" width="37.2" height="27"/>
	<path id="XMLID_178_" class="st2" d="M13.5,19.9v1.4c0,0.5,0.3,0.8,0.6,0.8h0.6v-3c0,0-0.3,0-0.6,0C13.8,19,13.5,19.4,13.5,19.9z"
		/>
	<rect id="XMLID_176_" x="55.3" y="24.1" class="st2" width="0.4" height="12.1"/>
	<path id="XMLID_174_" class="st2" d="M55.5,36.5c-0.3,0-0.5,0.2-0.5,0.5v1.1c0,0.3,0.2,0.5,0.5,0.5c0.3,0,0.5-0.2,0.5-0.5V37
		C56,36.7,55.8,36.5,55.5,36.5z"/>
</g>
<g id="XMLID_186_" class="st1">
	<path id="XMLID_189_" class="st2" d="M35.5,25.1h4.7L35.8,46h-5l-4-14.2L22.8,46h-4.9l-4.5-20.9h4.8l2.5,15.1l4.2-15.1h3.9
		l4.2,15.2L35.5,25.1z"/>
	<path id="XMLID_187_" class="st2" d="M42.4,35.5c0-1.6,0.2-3.1,0.7-4.4c0.5-1.3,1.2-2.4,2.1-3.4c0.9-0.9,2-1.7,3.2-2.2
		c1.3-0.5,2.7-0.8,4.3-0.8c1,0,1.9,0.1,2.6,0.2c0.7,0.2,1.3,0.4,1.9,0.6l-0.8,3.1c-0.5-0.2-1-0.3-1.6-0.4c-0.6-0.1-1.2-0.2-1.9-0.2
		c-0.9,0-1.7,0.1-2.4,0.4c-0.7,0.3-1.3,0.7-1.8,1.3c-0.5,0.6-0.9,1.4-1.2,2.3c-0.3,0.9-0.4,2-0.4,3.3c0,1.3,0.1,2.4,0.4,3.3
		c0.3,0.9,0.7,1.7,1.2,2.3c0.5,0.6,1.1,1.1,1.8,1.3c0.7,0.3,1.5,0.4,2.4,0.4c0.8,0,1.6-0.1,2.3-0.3c0.7-0.2,1.3-0.4,1.8-0.6l0.7,3.1
		c-0.6,0.3-1.3,0.5-2.2,0.7c-0.9,0.2-1.9,0.3-3.1,0.3c-1.5,0-2.9-0.3-4.2-0.8C47,45,46,44.2,45.1,43.3c-0.9-0.9-1.5-2.1-2-3.4
		C42.6,38.6,42.4,37.1,42.4,35.5z"/>
</g>
<g id="XMLID_194_" class="st1">
	<path id="XMLID_192_" class="st2" d="M47.8,35.5c0-5-3-9.5-7.5-11.4C40.1,24,39.9,24,39.7,24c-0.6,0-1.1,0.4-1.4,0.9
		c-0.2,0.4-0.2,0.8,0,1.2c0.1,0.4,0.4,0.7,0.8,0.8c3.5,1.5,5.7,4.9,5.7,8.6c0,3.7-2.2,7.1-5.7,8.6c-0.8,0.3-1.1,1.2-0.8,2
		c0.2,0.6,0.8,0.9,1.4,0.9c0.2,0,0.4,0,0.6-0.1C44.9,44.9,47.8,40.5,47.8,35.5z"/>
	<path id="XMLID_191_" class="st2" d="M53.4,34.9l0-0.5l0,0c0,0,0-0.1,0-0.1c0-0.1,0-0.2,0-0.2c0-0.3-0.1-0.5-0.1-0.8
		c-0.1-0.5-0.1-1-0.3-1.5c-0.3-1.5-0.9-3-1.6-4.4c-0.6-1.2-1.4-2.4-2.3-3.4c-0.9-1-1.9-2-3-2.8c-1.1-0.8-2.3-1.5-3.6-2.1
		c-0.2-0.1-0.3-0.1-0.4-0.1l0,0c0,0,0,0,0,0l0,0h-0.3l0,0c0,0,0,0,0,0c0,0,0,0,0,0c-0.4,0.1-0.7,0.3-1,0.6c-0.2,0.3-0.3,0.6-0.3,0.9
		c0,0.6,0.3,1,0.8,1.3c0,0,0.1,0,0.1,0.1c0,0,0,0,0,0c1.8,0.8,3.4,1.9,4.8,3.3c1.1,1.1,2,2.5,2.7,3.9c0.7,1.4,1.2,3,1.4,4.5
		c0.1,0.5,0.1,1.1,0.1,1.6c0,0.9,0,1.8-0.2,2.7c-0.1,0.6-0.2,1.2-0.4,1.8c-0.7,2.6-2.1,4.8-4,6.7c-1.3,1.2-2.7,2.2-4.4,2.9
		c0,0,0,0,0,0c-0.1,0-0.1,0.1-0.2,0.1c-0.6,0.3-0.9,1-0.8,1.5c0.1,0.8,0.7,1.3,1.5,1.3c0,0,0,0,0,0c0.2,0,0.4-0.1,0.6-0.1
		c0.4-0.2,0.7-0.3,1.1-0.5c1.8-0.9,3.4-2.1,4.7-3.5c1.7-1.8,3-3.8,3.9-6.2c0.4-1,0.6-2,0.8-3c0.1-0.4,0.1-0.7,0.2-1.1l0-0.1
		c0-0.2,0.1-0.4,0.1-0.7c0-0.1,0-0.3,0-0.4C53.4,36.1,53.4,35.5,53.4,34.9z"/>
	<path id="XMLID_190_" class="st2" d="M41.1,39c0.6-1,1-2.3,1-3.5c0-0.1,0-0.4,0-0.6c0-0.5-0.1-1-0.3-1.4c-0.3-1-0.9-1.9-1.6-2.6
		c-0.6-0.6-1.3-1.1-2.1-1.4c-0.2-0.1-0.4-0.1-0.6-0.1c-0.1,0-0.2,0-0.4,0c-0.3,0.1-0.6,0.3-0.8,0.5c-0.2,0.3-0.3,0.6-0.3,0.9
		c0,0.5,0.1,0.9,0.5,1.2c0.2,0.2,0.3,0.2,0.5,0.3c1.5,0.7,2.4,2.3,2.1,4c-0.2,1.2-1,2.1-2.1,2.6l0,0c0,0-0.1,0-0.1,0.1
		c-0.5,0.2-0.8,0.7-0.8,1.2c0,0.5,0.2,1,0.6,1.3c0.3,0.2,0.6,0.3,0.9,0.3c0.2,0,0.4,0,0.6-0.1c0.2-0.1,0.4-0.2,0.5-0.2
		C39.6,40.8,40.5,40,41.1,39z"/>
	<path id="XMLID_188_" class="st2" d="M17.6,31.5v8.1c0,0.7,0.6,1.3,1.3,1.3h0.6V30.1h-0.6C18.2,30.1,17.6,30.7,17.6,31.5z"/>
	<path id="XMLID_185_" class="st2" d="M33.1,32.1v-7.8c0-0.5-0.3-1-0.8-1.2c-0.2-0.1-0.3-0.1-0.5-0.1c-0.4,0-0.7,0.1-0.9,0.4
		l-6.7,6.8h-3.6v10.8h3.5l6.8,6.8c0.2,0.3,0.6,0.4,0.9,0.4c0.2,0,0.4,0,0.5-0.1c0.5-0.2,0.8-0.7,0.8-1.2V39c1-0.8,1.6-2.1,1.6-3.4
		S34.1,32.9,33.1,32.1z"/>
</g>
<g id="XMLID_4_" class="st1">
	<path id="XMLID_200_" class="st2" d="M62.1,16.3H9c-0.7,0-1.3,0.5-1.3,1.1v28.9c0,0.7,0.6,1.3,1.3,1.3h21.6V51h10v-3.3h21.6
		c0.7,0,1.2-0.7,1.2-1.3V17.5C63.3,16.8,62.8,16.3,62.1,16.3z M61.9,44.2H9.5V17.8h52.5V44.2z"/>
	<path id="XMLID_193_" class="st2" d="M46,52H25.2c-0.7,0-1.3,0.5-1.3,1.2v1.5h23.3v-1.5C47.2,52.5,46.6,52,46,52z"/>
</g>
<g id="XMLID_173_" class="st1">
	<g id="XMLID_213_" class="st3">
		<path id="XMLID_214_" class="st4" d="M35.5,55.4c-11,0-19.9-8.9-19.9-19.9c0-11,8.9-19.9,19.9-19.9c11,0,19.9,8.9,19.9,19.9
			C55.4,46.5,46.5,55.4,35.5,55.4z M35.5,18.1c-9.6,0-17.4,7.8-17.4,17.4c0,9.6,7.8,17.4,17.4,17.4c9.6,0,17.4-7.8,17.4-17.4
			C52.9,25.9,45.1,18.1,35.5,18.1z"/>
	</g>
	<g id="XMLID_211_" class="st3">
		<path id="XMLID_203_" class="st4" d="M50.8,35.5h-1.5c0-7.6-6.2-13.8-13.8-13.8c-7.6,0-13.8,6.2-13.8,13.8h-1.5
			c0-8.5,6.9-15.3,15.3-15.3C44,20.2,50.8,27.1,50.8,35.5z"/>
	</g>
	<rect id="XMLID_202_" x="46.8" y="34.2" class="st2" width="3.1" height="1.3"/>
	<circle id="XMLID_201_" class="st2" cx="35.5" cy="35.5" r="3.3"/>
	<polygon id="XMLID_199_" class="st2" points="33.4,35.5 35.4,23.5 35.7,23.5 37.7,35.5 	"/>
	<path id="XMLID_197_" class="st2" d="M35.5,43.1c-3.5,0-6.4,2.1-7.6,5.2c2.3,1.2,4.9,1.9,7.6,1.9c2.8,0,5.3-0.7,7.6-1.9
		C41.9,45.2,39,43.1,35.5,43.1z"/>
</g>
<g id="XMLID_207_" class="st1">
	<path id="XMLID_219_" class="st5" d="M58.6,44.3c0,3.3-2.7,6-6,6l0,0c-3.3,0-6-2.7-6-6v-7c0-3.3,2.7-6,6-6l0,0c3.3,0,6,2.7,6,6
		V44.3z"/>
	<g id="XMLID_212_" class="st3">
		<path id="XMLID_218_" class="st4" d="M33.1,37.5c-2.3,0-4.1,1.8-4.1,4.1c0,2.3,1.9,4.1,4.1,4.1c2.3,0,4.1-1.9,4.1-4.1
			C37.2,39.3,35.3,37.5,33.1,37.5z"/>
		<path id="XMLID_217_" class="st4" d="M33.1,10.9c-9.9,0-18.8,4.5-24.6,11.6l3.4,2.8c5-6.1,12.6-10,21.2-10
			c8.5,0,16.1,3.9,21.1,10.1l3.4-2.8C51.8,15.5,43,11,33.1,10.9z"/>
		<path id="XMLID_216_" class="st4" d="M33.1,19.8c-7.1,0-13.5,3.2-17.7,8.4l3.4,2.8c3.4-4.1,8.5-6.7,14.3-6.7
			c5.8,0,10.9,2.7,14.3,6.8l3.4-2.8C46.6,23.1,40.2,19.8,33.1,19.8z"/>
		<path id="XMLID_215_" class="st4" d="M33.1,28.7c-4.4,0-8.3,2-10.9,5.1l3.5,2.8c1.8-2.1,4.4-3.5,7.4-3.5c3,0,5.6,1.4,7.4,3.6
			l3.5-2.8C41.3,30.7,37.4,28.7,33.1,28.7z"/>
	</g>
	<path id="XMLID_210_" class="st2" d="M52.6,39.7c-3.4,0-9.9,1.6-9.9,4.8c0,0.6,0,1.9,0,1.9v10.8c0,0.7,0.3,1.5,0.9,2.1
		c0.6,0.6,1.3,0.9,2.1,0.9h13.9c0.7,0,1.5-0.3,2.1-0.9c0.6-0.6,0.9-1.3,0.9-2.1V46.3c0,0,0-1.3,0-1.9C62.5,41.2,56,39.7,52.6,39.7z"
		/>
	<path id="XMLID_209_" class="st6" d="M55,48c0,1.3-1,2.3-2.3,2.3c-1.3,0-2.3-1-2.3-2.3s1-2.3,2.3-2.3C53.9,45.6,55,46.7,55,48z"/>
	<path id="XMLID_208_" class="st6" d="M54,54.6c0.1,0.7-0.5,1.3-1.3,1.3l0,0c-0.8,0-1.4-0.6-1.3-1.3l0.8-5.3c0-0.1,0.2-0.2,0.5-0.2
		l0,0c0.3,0,0.5,0.1,0.5,0.2L54,54.6z"/>
</g>
<g id="XMLID_230_" class="st1">
	<path id="XMLID_228_" class="st2" d="M51.8,28.3c0-0.3,0-0.6-0.1-0.9c-0.1-1.6-1.2-2.8-2.6-2.9c-0.3,0-0.6,0-0.9-0.1
		c-0.2,0-0.4,0-0.6,0c0,0,0,0,0,0c-1,0.1-1.8,0.8-2.2,1.9c-1.1,2.6-2,6.2-2.6,10.1c-0.9,6,1,11.3,1.9,14.2l-23.8-3.4
		C18.2,47,19,53,21.1,55h0c1.2,1.1,2.5,1.8,4,2.2c0.1,0,0.3,0.1,0.4,0.1c0.9,0.2,1.8,0.3,2.7,0.3h17.9c1.5,0,2.7-1.2,3-2.9l0.6-3.5
		l-0.1,0l0.5-5.2c0.2-2.4,0.6-4.9,1-7.3c0-0.2,0.1-0.5,0.1-0.8c0.5-3.5,0.7-6.7,0.6-9.4L51.8,28.3C51.8,28.3,51.8,28.3,51.8,28.3z"
		/>
	<path id="XMLID_206_" class="st2" d="M48,22.7L48,22.7c-1.2,0-2.2-0.8-2.5-2l-1-4.3c-0.4-1.6,0.8-3.1,2.5-3.1l0,0
		c1.2,0,2.2,0.8,2.5,2l1,4.3C50.9,21.2,49.7,22.7,48,22.7z"/>
</g>
<g id="XMLID_198_" class="st1">
	<path id="XMLID_5_" class="st2" d="M61.1,19.8H10c-0.7,0-1.2,0.5-1.2,1.1v28.9c0,0.7,0.6,1.3,1.2,1.3h51.1c0.7,0,1.1-0.7,1.1-1.3
		V21C62.2,20.3,61.8,19.8,61.1,19.8z M60.9,47.7H10.4V21.3h50.5V47.7z"/>
	<g id="XMLID_357_" class="st3">
		<g id="XMLID_482_">
			<circle id="XMLID_500_" class="st4" cx="12.3" cy="23.1" r="0.4"/>
			<circle id="XMLID_498_" class="st4" cx="15.6" cy="23.1" r="0.4"/>
			<circle id="XMLID_497_" class="st4" cx="18.9" cy="23.1" r="0.5"/>
			<circle id="XMLID_494_" class="st4" cx="22.2" cy="23.1" r="0.6"/>
			<circle id="XMLID_493_" class="st4" cx="25.5" cy="23.1" r="0.6"/>
			<circle id="XMLID_492_" class="st4" cx="28.8" cy="23.1" r="0.7"/>
			<circle id="XMLID_491_" class="st4" cx="32.1" cy="23.1" r="0.8"/>
			<circle id="XMLID_490_" class="st4" cx="35.4" cy="23.1" r="0.8"/>
			<circle id="XMLID_489_" class="st4" cx="38.6" cy="23.1" r="0.9"/>
			<circle id="XMLID_488_" class="st4" cx="41.9" cy="23.1" r="1"/>
			<circle id="XMLID_487_" class="st4" cx="45.2" cy="23.1" r="1"/>
			<circle id="XMLID_486_" class="st4" cx="48.5" cy="23.1" r="1.1"/>
			<circle id="XMLID_485_" class="st4" cx="51.8" cy="23.1" r="1.2"/>
			<circle id="XMLID_484_" class="st4" cx="55.1" cy="23.1" r="1.2"/>
			<circle id="XMLID_483_" class="st4" cx="58.4" cy="23.1" r="1.3"/>
		</g>
		<g id="XMLID_464_">
			<circle id="XMLID_480_" class="st4" cx="12.3" cy="26.4" r="0.4"/>
			<circle id="XMLID_479_" class="st4" cx="15.6" cy="26.4" r="0.4"/>
			<circle id="XMLID_478_" class="st4" cx="18.9" cy="26.4" r="0.5"/>
			<circle id="XMLID_476_" class="st4" cx="22.2" cy="26.4" r="0.6"/>
			<circle id="XMLID_475_" class="st4" cx="25.5" cy="26.4" r="0.6"/>
			<circle id="XMLID_474_" class="st4" cx="28.8" cy="26.4" r="0.7"/>
			<circle id="XMLID_473_" class="st4" cx="32.1" cy="26.4" r="0.8"/>
			<circle id="XMLID_472_" class="st4" cx="35.4" cy="26.4" r="0.8"/>
			<circle id="XMLID_471_" class="st4" cx="38.6" cy="26.4" r="0.9"/>
			<circle id="XMLID_470_" class="st4" cx="41.9" cy="26.4" r="1"/>
			<circle id="XMLID_469_" class="st4" cx="45.2" cy="26.4" r="1"/>
			<circle id="XMLID_468_" class="st4" cx="48.5" cy="26.4" r="1.1"/>
			<circle id="XMLID_467_" class="st4" cx="51.8" cy="26.4" r="1.2"/>
			<circle id="XMLID_466_" class="st4" cx="55.1" cy="26.4" r="1.2"/>
			<circle id="XMLID_465_" class="st4" cx="58.4" cy="26.4" r="1.3"/>
		</g>
		<g id="XMLID_447_">
			<circle id="XMLID_463_" class="st4" cx="12.3" cy="29.7" r="0.3"/>
			<circle id="XMLID_462_" class="st4" cx="15.6" cy="29.7" r="0.4"/>
			<circle id="XMLID_461_" class="st4" cx="18.9" cy="29.7" r="0.5"/>
			<circle id="XMLID_459_" class="st4" cx="22.2" cy="29.7" r="0.5"/>
			<circle id="XMLID_458_" class="st4" cx="25.5" cy="29.7" r="0.6"/>
			<circle id="XMLID_457_" class="st4" cx="28.8" cy="29.7" r="0.7"/>
			<circle id="XMLID_456_" class="st4" cx="32.1" cy="29.7" r="0.7"/>
			<circle id="XMLID_455_" class="st4" cx="35.4" cy="29.7" r="0.8"/>
			<circle id="XMLID_454_" class="st4" cx="38.6" cy="29.7" r="0.9"/>
			<circle id="XMLID_453_" class="st4" cx="41.9" cy="29.7" r="0.9"/>
			<circle id="XMLID_452_" class="st4" cx="45.2" cy="29.7" r="1"/>
			<circle id="XMLID_451_" class="st4" cx="48.5" cy="29.7" r="1.1"/>
			<circle id="XMLID_450_" class="st4" cx="51.8" cy="29.7" r="1.1"/>
			<circle id="XMLID_449_" class="st4" cx="55.1" cy="29.7" r="1.2"/>
			<circle id="XMLID_448_" class="st4" cx="58.4" cy="29.7" r="1.3"/>
		</g>
		<g id="XMLID_430_">
			<circle id="XMLID_446_" class="st4" cx="12.3" cy="33" r="0.3"/>
			<circle id="XMLID_445_" class="st4" cx="15.6" cy="33" r="0.4"/>
			<circle id="XMLID_443_" class="st4" cx="18.9" cy="33" r="0.4"/>
			<circle id="XMLID_442_" class="st4" cx="22.2" cy="33" r="0.5"/>
			<circle id="XMLID_441_" class="st4" cx="25.5" cy="33" r="0.6"/>
			<circle id="XMLID_440_" class="st4" cx="28.8" cy="33" r="0.6"/>
			<circle id="XMLID_439_" class="st4" cx="32.1" cy="33" r="0.7"/>
			<circle id="XMLID_438_" class="st4" cx="35.4" cy="33" r="0.8"/>
			<circle id="XMLID_437_" class="st4" cx="38.6" cy="33" r="0.8"/>
			<circle id="XMLID_436_" class="st4" cx="41.9" cy="33" r="0.9"/>
			<circle id="XMLID_435_" class="st4" cx="45.2" cy="33" r="1"/>
			<circle id="XMLID_434_" class="st4" cx="48.5" cy="33" r="1"/>
			<circle id="XMLID_433_" class="st4" cx="51.8" cy="33" r="1.1"/>
			<circle id="XMLID_432_" class="st4" cx="55.1" cy="33" r="1.2"/>
			<circle id="XMLID_431_" class="st4" cx="58.4" cy="33" r="1.2"/>
		</g>
		<g id="XMLID_413_">
			<circle id="XMLID_429_" class="st4" cx="12.3" cy="36.3" r="0.2"/>
			<circle id="XMLID_427_" class="st4" cx="15.6" cy="36.3" r="0.3"/>
			<circle id="XMLID_426_" class="st4" cx="18.9" cy="36.3" r="0.4"/>
			<circle id="XMLID_425_" class="st4" cx="22.2" cy="36.3" r="0.5"/>
			<circle id="XMLID_424_" class="st4" cx="25.5" cy="36.3" r="0.5"/>
			<circle id="XMLID_423_" class="st4" cx="28.8" cy="36.3" r="0.6"/>
			<circle id="XMLID_422_" class="st4" cx="32.1" cy="36.3" r="0.6"/>
			<circle id="XMLID_421_" class="st4" cx="35.4" cy="36.3" r="0.7"/>
			<circle id="XMLID_420_" class="st4" cx="38.6" cy="36.3" r="0.8"/>
			<circle id="XMLID_419_" class="st4" cx="41.9" cy="36.3" r="0.9"/>
			<circle id="XMLID_418_" class="st4" cx="45.2" cy="36.3" r="0.9"/>
			<circle id="XMLID_417_" class="st4" cx="48.5" cy="36.3" r="1"/>
			<circle id="XMLID_416_" class="st4" cx="51.8" cy="36.3" r="1.1"/>
			<circle id="XMLID_415_" class="st4" cx="55.1" cy="36.3" r="1.1"/>
			<circle id="XMLID_414_" class="st4" cx="58.4" cy="36.3" r="1.2"/>
		</g>
		<g id="XMLID_395_">
			<circle id="XMLID_411_" class="st4" cx="12.3" cy="39.5" r="0.2"/>
			<circle id="XMLID_410_" class="st4" cx="15.6" cy="39.5" r="0.3"/>
			<circle id="XMLID_409_" class="st4" cx="18.9" cy="39.5" r="0.4"/>
			<circle id="XMLID_408_" class="st4" cx="22.2" cy="39.5" r="0.5"/>
			<circle id="XMLID_407_" class="st4" cx="25.5" cy="39.5" r="0.5"/>
			<circle id="XMLID_406_" class="st4" cx="28.8" cy="39.5" r="0.6"/>
			<circle id="XMLID_405_" class="st4" cx="32.1" cy="39.5" r="0.6"/>
			<circle id="XMLID_404_" class="st4" cx="35.4" cy="39.5" r="0.7"/>
			<circle id="XMLID_403_" class="st4" cx="38.6" cy="39.5" r="0.8"/>
			<circle id="XMLID_402_" class="st4" cx="41.9" cy="39.5" r="0.9"/>
			<circle id="XMLID_401_" class="st4" cx="45.2" cy="39.5" r="0.9"/>
			<circle id="XMLID_400_" class="st4" cx="48.5" cy="39.5" r="1"/>
			<circle id="XMLID_399_" class="st4" cx="51.8" cy="39.5" r="1.1"/>
			<circle id="XMLID_398_" class="st4" cx="55.1" cy="39.5" r="1.1"/>
			<circle id="XMLID_397_" class="st4" cx="58.4" cy="39.5" r="1.2"/>
		</g>
		<g id="XMLID_378_">
			<circle id="XMLID_394_" class="st4" cx="12.3" cy="42.8" r="0.2"/>
			<circle id="XMLID_393_" class="st4" cx="15.6" cy="42.8" r="0.3"/>
			<circle id="XMLID_392_" class="st4" cx="18.9" cy="42.8" r="0.4"/>
			<circle id="XMLID_391_" class="st4" cx="22.2" cy="42.8" r="0.5"/>
			<circle id="XMLID_390_" class="st4" cx="25.5" cy="42.8" r="0.5"/>
			<circle id="XMLID_389_" class="st4" cx="28.8" cy="42.8" r="0.6"/>
			<circle id="XMLID_388_" class="st4" cx="32.1" cy="42.8" r="0.6"/>
			<circle id="XMLID_387_" class="st4" cx="35.4" cy="42.8" r="0.7"/>
			<circle id="XMLID_386_" class="st4" cx="38.6" cy="42.8" r="0.8"/>
			<circle id="XMLID_385_" class="st4" cx="41.9" cy="42.8" r="0.9"/>
			<circle id="XMLID_384_" class="st4" cx="45.2" cy="42.8" r="0.9"/>
			<circle id="XMLID_383_" class="st4" cx="48.5" cy="42.8" r="1"/>
			<circle id="XMLID_382_" class="st4" cx="51.8" cy="42.8" r="1.1"/>
			<circle id="XMLID_381_" class="st4" cx="55.1" cy="42.8" r="1.1"/>
			<circle id="XMLID_379_" class="st4" cx="58.4" cy="42.8" r="1.2"/>
		</g>
		<g id="XMLID_358_">
			<circle id="XMLID_377_" class="st4" cx="12.3" cy="46.1" r="0.2"/>
			<circle id="XMLID_376_" class="st4" cx="15.6" cy="46.1" r="0.3"/>
			<circle id="XMLID_375_" class="st4" cx="18.9" cy="46.1" r="0.4"/>
			<circle id="XMLID_374_" class="st4" cx="22.2" cy="46.1" r="0.5"/>
			<circle id="XMLID_373_" class="st4" cx="25.5" cy="46.1" r="0.5"/>
			<circle id="XMLID_372_" class="st4" cx="28.8" cy="46.1" r="0.6"/>
			<circle id="XMLID_371_" class="st4" cx="32.1" cy="46.1" r="0.6"/>
			<circle id="XMLID_370_" class="st4" cx="35.4" cy="46.1" r="0.7"/>
			<circle id="XMLID_369_" class="st4" cx="38.6" cy="46.1" r="0.8"/>
			<circle id="XMLID_368_" class="st4" cx="41.9" cy="46.1" r="0.9"/>
			<circle id="XMLID_367_" class="st4" cx="45.2" cy="46.1" r="0.9"/>
			<circle id="XMLID_366_" class="st4" cx="48.5" cy="46.1" r="1"/>
			<circle id="XMLID_365_" class="st4" cx="51.8" cy="46.1" r="1.1"/>
			<circle id="XMLID_362_" class="st4" cx="55.1" cy="46.1" r="1.1"/>
			<circle id="XMLID_361_" class="st4" cx="58.4" cy="46.1" r="1.2"/>
		</g>
	</g>
</g>
<g id="XMLID_19_">
	<g id="XMLID_177_">
		<path id="XMLID_171_" class="st4" d="M41.3,52.2H27.5c-1.2,0-2.2-1-2.2-2.2c0-1.2,1-2.2,2.2-2.2h12l4-16.4
			c0.3-1.2,1.5-1.9,2.6-1.6c1.2,0.3,1.9,1.5,1.6,2.6l-4.4,18C43.1,51.5,42.3,52.2,41.3,52.2z"/>
	</g>
	<g id="XMLID_175_">
		<path id="XMLID_170_" class="st4" d="M16.9,56.9c-0.4,0-0.8-0.1-1.2-0.3c-1.4-0.7-1.9-2.3-1.3-3.6l4.9-10.1
			c0.5-0.9,1.4-1.5,2.4-1.5h11.5l1.5-7.6l-3.3,2.3c-0.3,0.2-0.7,0.4-1.1,0.4l-7.4,1.2c-1.5,0.2-2.9-0.8-3.1-2.2
			c-0.2-1.5,0.8-2.9,2.2-3.1l6.8-1.1l8.3-5.7c0.9-0.6,2.1-0.6,3,0c0.9,0.6,1.4,1.7,1.2,2.8l-3.3,16.4c-0.3,1.3-1.4,2.2-2.7,2.2h-12
			l-4.2,8.6C18.9,56.3,17.9,56.9,16.9,56.9z"/>
	</g>
	<circle id="XMLID_2_" class="st4" cx="39.6" cy="18.9" r="4.7"/>
	<g id="XMLID_229_">
		<path id="XMLID_231_" class="st7" d="M40.8,51.2l0.7-4.6l11.6-12.3c0.8-0.9,2.2-0.9,3.1-0.1c0.9,0.8,0.9,2.2,0.1,3.1L43.5,50.8
			C42.8,51.5,41.7,51.7,40.8,51.2z"/>
	</g>
</g>
<g id="XMLID_233_" class="st1">
	<path id="XMLID_502_" class="st2" d="M66.2,16.7H4.9c-0.8,0-1.5,0.6-1.5,1.4v34.6c0,0.8,0.7,1.6,1.5,1.6h61.3
		c0.8,0,1.3-0.8,1.3-1.6V18.1C67.6,17.3,67,16.7,66.2,16.7z M66,50.2H5.4V18.5H66V50.2z"/>
	<circle id="XMLID_232_" class="st8" cx="35.7" cy="52.2" r="1.4"/>
</g>
<g id="XMLID_234_" class="st1">
	<path id="XMLID_235_" class="st2" d="M43.4,54.5H20.1c-2,0-3.7-1.7-3.7-3.7c0-2,1.7-3.7,3.7-3.7h20.4l6.8-27.8
		c0.5-2,2.5-3.2,4.5-2.7c2,0.5,3.2,2.5,2.7,4.5L47,51.7C46.6,53.4,45.1,54.5,43.4,54.5z"/>
</g>
</svg>
